Log file created at: 2014/12/27 18:08:45
Running on machine: sommoyogurt.local
Log line format: [IWEF]mmdd hh:mm:ss.uuuuuu threadid file:line] msg
I1227 18:08:45.255215 2016023296 punpun.cpp:18] Bind Tcp: 127.0.0.1:8888
