Log file created at: 2014/12/27 01:10:33
Running on machine: sommoyogurt.local
Log line format: [IWEF]mmdd hh:mm:ss.uuuuuu threadid file:line] msg
I1227 01:10:33.649802 2016023296 punpun.cpp:18] Bind Tcp: 0.0.0.0:8888
I1227 01:10:34.655179 2016023296 timer.cpp:16] 0
I1227 01:10:35.655078 2016023296 timer.cpp:16] 1
I1227 01:10:36.653759 2016023296 timer.cpp:16] 2
I1227 01:10:37.653017 2016023296 timer.cpp:16] 3
I1227 01:10:38.652334 2016023296 timer.cpp:16] 4
I1227 01:10:39.655201 2016023296 timer.cpp:11] 5
