Log file created at: 2014/12/29 15:30:04
Running on machine: nbk03201.int.master.lan
Log line format: [IWEF]mmdd hh:mm:ss.uuuuuu threadid file:line] msg
I1229 15:30:04.642010 2016023296 punpun.cpp:18] Bind Tcp: 127.0.0.1:8888
