Log file created at: 2014/12/27 01:09:19
Running on machine: sommoyogurt.local
Log line format: [IWEF]mmdd hh:mm:ss.uuuuuu threadid file:line] msg
I1227 01:09:19.032754 2016023296 punpun.cpp:18] Bind Tcp: 0.0.0.0:8888
I1227 01:09:19.033818 2016023296 timer.cpp:11] 0
