Log file created at: 2014/12/26 00:22:45
Running on machine: sommoyogurt.local
Log line format: [IWEF]mmdd hh:mm:ss.uuuuuu threadid file:line] msg
I1226 00:22:45.924734 2016023296 punpun.cpp:14] Port: 8888
