Log file created at: 2014/12/27 11:03:38
Running on machine: sommoyogurt.local
Log line format: [IWEF]mmdd hh:mm:ss.uuuuuu threadid file:line] msg
I1227 11:03:38.675631 2016023296 punpun.cpp:19] Bind Tcp: 0.0.0.0:8888
I1227 11:03:39.681274 2016023296 timer.cpp:14] 0
I1227 11:03:40.681255 2016023296 timer.cpp:14] 1
I1227 11:03:41.680681 2016023296 timer.cpp:14] 2
I1227 11:03:42.681056 2016023296 timer.cpp:14] 3
I1227 11:03:43.680238 2016023296 timer.cpp:14] 4
I1227 11:03:44.680007 2016023296 timer.cpp:9] 5
