Log file created at: 2014/12/26 00:20:46
Running on machine: sommoyogurt.local
Log line format: [IWEF]mmdd hh:mm:ss.uuuuuu threadid file:line] msg
E1226 00:20:46.357683 2016023296 config.cpp:21] No file config found in config/server.conf
